%!PS-Adobe-3.0
%%DocumentNeededResources: font Helvetica
%%+ font Helvetica-Bold
%%+ font Helvetica-Oblique
%%+ font Helvetica-BoldOblique
%%+ font Symbol
%%DocumentMedia: a4 595 841 0 () ()
%%Title: R Graphics Output
%%Creator: R Software
%%Pages: (atend)
%%Orientation: Landscape
%%BoundingBox: 201 259 395 583
%%EndComments
%%BeginProlog
/bp  { gs sRGB 595.00 0 translate 90 rotate gs } def
% begin .ps.prolog
/gs  { gsave } bind def
/gr  { grestore } bind def
/ep  { showpage gr gr } bind def
/m   { moveto } bind def
/l  { rlineto } bind def
/np  { newpath } bind def
/cp  { closepath } bind def
/f   { fill } bind def
/o   { stroke } bind def
/c   { newpath 0 360 arc } bind def
/r   { 4 2 roll moveto 1 copy 3 -1 roll exch 0 exch rlineto 0 rlineto -1 mul 0 exch rlineto closepath } bind def
/p1  { stroke } bind def
/p2  { gsave bg fill grestore newpath } bind def
/p3  { gsave bg fill grestore stroke } bind def
/p6  { gsave bg eofill grestore newpath } bind def
/p7  { gsave bg eofill grestore stroke } bind def
/t   { 5 -2 roll moveto gsave rotate
       1 index stringwidth pop
       mul neg 0 rmoveto show grestore } bind def
/ta  { 4 -2 roll moveto gsave rotate show } bind def
/tb  { 2 -1 roll 0 rmoveto show } bind def
/cl  { grestore gsave newpath 3 index 3 index moveto 1 index
       4 -1 roll lineto  exch 1 index lineto lineto
       closepath clip newpath } bind def
/rgb { setrgbcolor } bind def
/s   { scalefont setfont } bind def
% end   .ps.prolog
/sRGB { [ /CIEBasedABC
          << /DecodeLMN
               [ { dup 0.03928 le
                        {12.92321 div}
                        {0.055 add 1.055 div 2.4 exp }
                     ifelse
                 } bind dup dup
               ]
             /MatrixLMN [0.412457 0.212673 0.019334
                         0.357576 0.715152 0.119192
                         0.180437 0.072175 0.950301]
             /WhitePoint [0.9505 1.0 1.0890]
           >>
         ] setcolorspace } bind def
/srgb { setcolor } bind def
%%IncludeResource: font Helvetica
/Helvetica findfont
dup length dict begin
  {1 index /FID ne {def} {pop pop} ifelse} forall
  /Encoding ISOLatin1Encoding def
  currentdict
  end
/Font1 exch definefont pop
%%IncludeResource: font Helvetica-Bold
/Helvetica-Bold findfont
dup length dict begin
  {1 index /FID ne {def} {pop pop} ifelse} forall
  /Encoding ISOLatin1Encoding def
  currentdict
  end
/Font2 exch definefont pop
%%IncludeResource: font Helvetica-Oblique
/Helvetica-Oblique findfont
dup length dict begin
  {1 index /FID ne {def} {pop pop} ifelse} forall
  /Encoding ISOLatin1Encoding def
  currentdict
  end
/Font3 exch definefont pop
%%IncludeResource: font Helvetica-BoldOblique
/Helvetica-BoldOblique findfont
dup length dict begin
  {1 index /FID ne {def} {pop pop} ifelse} forall
  /Encoding ISOLatin1Encoding def
  currentdict
  end
/Font4 exch definefont pop
%%IncludeResource: font Symbol
/Symbol findfont
dup length dict begin
  {1 index /FID ne {def} {pop pop} ifelse} forall
  currentdict
  end
/Font5 exch definefont pop
%%EndProlog
%%Page: 1 1
bp
259.32 200.51 582.57 394.76 cl
259.32 200.51 582.57 394.76 cl
259.32 200.51 582.57 394.76 cl
259.32 200.51 582.57 394.76 cl
259.32 200.51 582.57 394.76 cl
259.32 200.51 582.57 394.76 cl
259.32 200.51 582.57 394.76 cl
259.32 200.51 582.57 394.76 cl
259.32 200.51 582.57 394.76 cl
259.32 200.51 582.57 394.76 cl
259.32 200.51 582.57 394.76 cl
/bg { 1 1 1 srgb } def
1 1 1 srgb
1.07 setlinewidth
[] 0 setdash
1 setlinecap
1 setlinejoin
10.00 setmiterlimit
259.32 200.51 323.25 194.25 r p3
259.32 200.51 582.57 394.76 cl
306.60 233.29 577.09 356.59 cl
/bg { 1 1 1 srgb } def
306.60 233.29 270.49 123.30 r p2
0.9216 0.9216 0.9216 srgb
0.53 setlinewidth
[] 0 setdash
0 setlinecap
1 setlinejoin
10.00 setmiterlimit
np
306.60 237.64 m
270.49 0 l
o
np
306.60 238.27 m
270.49 0 l
o
np
306.60 239.52 m
270.49 0 l
o
np
306.60 241.36 m
270.49 0 l
o
np
306.60 248.17 m
270.49 0 l
o
np
306.60 268.32 m
270.49 0 l
o
np
306.60 316.92 m
270.49 0 l
o
np
306.60 351.61 m
270.49 0 l
o
np
306.60 352.24 m
270.49 0 l
o
np
310.96 233.29 m
0 123.30 l
o
np
314.93 233.29 m
0 123.30 l
o
np
322.86 233.29 m
0 123.30 l
o
np
334.76 233.29 m
0 123.30 l
o
np
358.56 233.29 m
0 123.30 l
o
np
406.15 233.29 m
0 123.30 l
o
np
501.34 233.29 m
0 123.30 l
o
np
568.76 233.29 m
0 123.30 l
o
np
572.73 233.29 m
0 123.30 l
o
1.07 setlinewidth
[] 0 setdash
np
306.60 238.90 m
270.49 0 l
o
np
306.60 240.15 m
270.49 0 l
o
np
306.60 242.57 m
270.49 0 l
o
np
306.60 253.78 m
270.49 0 l
o
np
306.60 282.86 m
270.49 0 l
o
np
306.60 350.99 m
270.49 0 l
o
np
318.90 233.29 m
0 123.30 l
o
np
326.83 233.29 m
0 123.30 l
o
np
342.69 233.29 m
0 123.30 l
o
np
374.42 233.29 m
0 123.30 l
o
np
437.88 233.29 m
0 123.30 l
o
np
564.80 233.29 m
0 123.30 l
o
0 0 0 srgb
1.00 setmiterlimit
np
318.90 238.90 m
7.93 1.25 l
15.86 2.42 l
31.73 11.21 l
63.46 20.66 l
126.92 76.55 l
o
/bg { 0 0 0 srgb } def
0.71 setlinewidth
[] 0 setdash
1 setlinecap
10.00 setmiterlimit
318.90 238.90 1.95 c p3
326.83 240.15 1.95 c p3
342.69 242.57 1.95 c p3
374.42 253.78 1.95 c p3
437.88 274.44 1.95 c p3
564.80 350.99 1.95 c p3
0.2000 0.2000 0.2000 srgb
1.07 setlinewidth
[] 0 setdash
306.60 233.29 270.49 123.30 r p1
259.32 200.51 582.57 394.76 cl
259.32 200.51 582.57 394.76 cl
259.32 200.51 582.57 394.76 cl
259.32 200.51 582.57 394.76 cl
259.32 200.51 582.57 394.76 cl
259.32 200.51 582.57 394.76 cl
259.32 200.51 582.57 394.76 cl
259.32 200.51 582.57 394.76 cl
259.32 200.51 582.57 394.76 cl
259.32 200.51 582.57 394.76 cl
259.32 200.51 582.57 394.76 cl
259.32 200.51 582.57 394.76 cl
259.32 200.51 582.57 394.76 cl
259.32 200.51 582.57 394.76 cl
259.32 200.51 582.57 394.76 cl
259.32 200.51 582.57 394.76 cl
/Font1 findfont 7 s
0.3020 0.3020 0.3020 srgb
289.99 236.38 (1839) .5 0 t
289.99 237.64 (4933) .5 0 t
289.99 240.05 (10891) .5 0 t
289.99 251.26 (38557) .5 0 t
289.99 280.35 (110324) .5 0 t
289.99 348.47 (278423) .5 0 t
259.32 200.51 582.57 394.76 cl
259.32 200.51 582.57 394.76 cl
0.2000 0.2000 0.2000 srgb
1.07 setlinewidth
[] 0 setdash
0 setlinecap
1 setlinejoin
10.00 setmiterlimit
np
303.86 238.90 m
2.74 0 l
o
np
303.86 240.15 m
2.74 0 l
o
np
303.86 242.57 m
2.74 0 l
o
np
303.86 253.78 m
2.74 0 l
o
np
303.86 282.86 m
2.74 0 l
o
np
303.86 350.99 m
2.74 0 l
o
259.32 200.51 582.57 394.76 cl
259.32 200.51 582.57 394.76 cl
259.32 200.51 582.57 394.76 cl
259.32 200.51 582.57 394.76 cl
259.32 200.51 582.57 394.76 cl
259.32 200.51 582.57 394.76 cl
259.32 200.51 582.57 394.76 cl
259.32 200.51 582.57 394.76 cl
259.32 200.51 582.57 394.76 cl
259.32 200.51 582.57 394.76 cl
0.2000 0.2000 0.2000 srgb
1.07 setlinewidth
[] 0 setdash
0 setlinecap
1 setlinejoin
10.00 setmiterlimit
np
318.90 230.55 m
0 2.74 l
o
np
326.83 230.55 m
0 2.74 l
o
np
342.69 230.55 m
0 2.74 l
o
np
374.42 230.55 m
0 2.74 l
o
np
437.88 230.55 m
0 2.74 l
o
np
564.80 230.55 m
0 2.74 l
o
259.32 200.51 582.57 394.76 cl
259.32 200.51 582.57 394.76 cl
/Font1 findfont 9 s
0.3020 0.3020 0.3020 srgb
318.90 221.90 (20) .5 0 t
326.83 221.90 (40) .5 0 t
342.69 221.90 (80) .5 0 t
374.42 221.90 (160) .5 0 t
437.88 221.90 (320) .5 0 t
564.80 221.90 (640) .5 0 t
259.32 200.51 582.57 394.76 cl
259.32 200.51 582.57 394.76 cl
259.32 200.51 582.57 394.76 cl
259.32 200.51 582.57 394.76 cl
259.32 200.51 582.57 394.76 cl
259.32 200.51 582.57 394.76 cl
/Font1 findfont 11 s
0 0 0 srgb
350.90 208.52 (Number of Config Options - Busybo) 0 ta
-0.330 (x) tb gr
259.32 200.51 582.57 394.76 cl
259.32 200.51 582.57 394.76 cl
/Font1 findfont 11 s
0 0 0 srgb
272.70 268.96 (T) 90 ta
-1.320 (otal Time) tb gr
259.32 200.51 582.57 394.76 cl
259.32 200.51 582.57 394.76 cl
259.32 200.51 582.57 394.76 cl
259.32 200.51 582.57 394.76 cl
259.32 200.51 582.57 394.76 cl
259.32 200.51 582.57 394.76 cl
/Font1 findfont 13 s
0 0 0 srgb
306.60 379.95 (iGen Ex) 0 ta
-0.390 (ecution Time f) tb
-0.390 (or Increasing Number of ) tb gr
306.60 365.69 ( Configur) 0 ta
-0.130 (ation Options) tb gr
259.32 200.51 582.57 394.76 cl
259.32 200.51 582.57 394.76 cl
259.32 200.51 582.57 394.76 cl
259.32 200.51 582.57 394.76 cl
ep
%%Trailer
%%Pages: 1
%%EOF
